<?xml version="1.0" encoding="UTF-8" standalone="no"?>
<svg
   xmlns:dc="http://purl.org/dc/elements/1.1/"
   xmlns:cc="http://creativecommons.org/ns#"
   xmlns:rdf="http://www.w3.org/1999/02/22-rdf-syntax-ns#"
   xmlns:svg="http://www.w3.org/2000/svg"
   xmlns="http://www.w3.org/2000/svg"
   xmlns:sodipodi="http://sodipodi.sourceforge.net/DTD/sodipodi-0.dtd"
   xmlns:inkscape="http://www.inkscape.org/namespaces/inkscape"
   width="48"
   height="48"
   viewBox="0 0 48 48"
   role="img"
   version="1.1"
   id="svg1780"
   sodipodi:docname="alpinelinux.svg"
   inkscape:version="1.0.2 (e86c870879, 2021-01-15)"
   inkscape:export-filename="/home/adam/Development/adamsdesk-ventoy-grub-theme/assets/icons/alpinelinux.png"
   inkscape:export-xdpi="96"
   inkscape:export-ydpi="96">
  <metadata
     id="metadata1786">
    <rdf:RDF>
      <cc:Work
         rdf:about="">
        <dc:format>image/svg+xml</dc:format>
        <dc:type
           rdf:resource="http://purl.org/dc/dcmitype/StillImage" />
        <dc:title>Alpine Linux icon</dc:title>
      </cc:Work>
    </rdf:RDF>
  </metadata>
  <defs
     id="defs1784" />
  <sodipodi:namedview
     pagecolor="#ffffff"
     bordercolor="#666666"
     borderopacity="1"
     objecttolerance="10"
     gridtolerance="10"
     guidetolerance="10"
     inkscape:pageopacity="0"
     inkscape:pageshadow="2"
     inkscape:window-width="3840"
     inkscape:window-height="2160"
     id="namedview1782"
     showgrid="false"
     inkscape:zoom="26.604893"
     inkscape:cx="16.665839"
     inkscape:cy="24.969855"
     inkscape:window-x="0"
     inkscape:window-y="0"
     inkscape:window-maximized="1"
     inkscape:current-layer="svg1780"
     inkscape:document-rotation="0" />
  <title
     id="title1776">Alpine Linux icon</title>
  <path
     d="M 11.999698,3.388379 0.01347407,24.157442 11.999698,44.926504 H 35.988136 L 47.974361,24.157442 35.988136,3.388379 Z m 7.927536,11.017015 5.385607,5.55547 3.193397,3.1874 0.0041,-0.0041 4.816074,4.722148 c -0.399675,0.279773 -0.771372,0.50359 -1.125083,0.687439 a 7.5058788,7.5058788 0 0 1 -0.991192,0.433648 5.3995966,5.3995966 0 0 1 -0.849308,0.221819 c -0.261786,0.04596 -0.499592,0.06794 -0.715416,0.06794 -0.259788,0 -0.483606,-0.02797 -0.675449,-0.06794 a 2.6318537,2.6318537 0 0 1 -0.479609,-0.143883 1.8984518,1.8984518 0 0 1 -0.399674,-0.225816 l -2.122269,-2.18222 -6.073048,-6.077045 -2.198207,2.104285 -6.134997,6.138993 a 1.9464126,1.9464126 0 0 1 -0.399674,0.22182 2.5459238,2.5459238 0 0 1 -0.473614,0.145881 c -0.191843,0.03997 -0.417659,0.06595 -0.67545,0.06595 -0.2158229,0 -0.4536289,-0.01799 -0.7154159,-0.06195 a 5.3955999,5.3955999 0 0 1 -0.849373,-0.227746 7.489892,7.489892 0 0 1 -0.991191,-0.433648 10.44748,10.44748 0 0 1 -1.125082,-0.68544 z m 9.432307,1.568722 9.150539,9.188506 2.761747,2.703795 a 10.47146,10.47146 0 0 1 -1.12708,0.687439 7.4539212,7.4539212 0 0 1 -0.987196,0.433646 5.3896047,5.3896047 0 0 1 -0.851305,0.22182 c -0.259789,0.04596 -0.501592,0.06794 -0.719414,0.06794 -0.257789,0 -0.481607,-0.02797 -0.673451,-0.06794 a 2.5679059,2.5679059 0 0 1 -0.769372,-0.291763 c -0.06595,-0.03996 -0.09992,-0.07193 -0.105913,-0.07994 l -2.461993,-2.434015 -4.218559,-4.218559 -0.667457,0.667456 -3.117457,-3.09148 3.78891,-3.790908 z m -11.922276,8.233285 v 5.053878 a 4.252532,4.252532 0 0 1 -0.71142,-0.06994 5.5254939,5.5254939 0 0 1 -0.843313,-0.23181 7.4099571,7.4099571 0 0 1 -0.975204,-0.427653 10.425498,10.425498 0 0 1 -1.109096,-0.679445 l 3.637035,-3.647026 z"
     id="path1778"
     style="fill:#808080;fill-opacity:1;stroke-width:0.999996"
     inkscape:export-xdpi="96"
     inkscape:export-ydpi="96" />
</svg>
