<?xml version="1.0" encoding="UTF-8" standalone="no"?>
<svg
   xmlns:dc="http://purl.org/dc/elements/1.1/"
   xmlns:cc="http://creativecommons.org/ns#"
   xmlns:rdf="http://www.w3.org/1999/02/22-rdf-syntax-ns#"
   xmlns:svg="http://www.w3.org/2000/svg"
   xmlns="http://www.w3.org/2000/svg"
   xmlns:sodipodi="http://sodipodi.sourceforge.net/DTD/sodipodi-0.dtd"
   xmlns:inkscape="http://www.inkscape.org/namespaces/inkscape"
   version="1.1"
   id="Capa_1"
   x="0px"
   y="0px"
   viewBox="0 0 60 60"
   style="enable-background:new 0 0 60 60;"
   xml:space="preserve"
   sodipodi:docname="boot_disk.svg"
   inkscape:version="1.0.2 (e86c870879, 2021-01-15)"><metadata
   id="metadata67"><rdf:RDF><cc:Work
       rdf:about=""><dc:format>image/svg+xml</dc:format><dc:type
         rdf:resource="http://purl.org/dc/dcmitype/StillImage" /><dc:title></dc:title></cc:Work></rdf:RDF></metadata><defs
   id="defs65" /><sodipodi:namedview
   pagecolor="#ffffff"
   bordercolor="#666666"
   borderopacity="1"
   objecttolerance="10"
   gridtolerance="10"
   guidetolerance="10"
   inkscape:pageopacity="0"
   inkscape:pageshadow="2"
   inkscape:window-width="2984"
   inkscape:window-height="1572"
   id="namedview63"
   showgrid="false"
   inkscape:zoom="15.05"
   inkscape:cx="13.023256"
   inkscape:cy="30"
   inkscape:window-x="0"
   inkscape:window-y="0"
   inkscape:window-maximized="0"
   inkscape:current-layer="Capa_1" />
<g
   id="g30"
   style="fill:#808080;fill-opacity:1">
	<circle
   cx="5"
   cy="13"
   r="1"
   id="circle2"
   style="fill:#808080;fill-opacity:1" />
	<rect
   x="4"
   y="28"
   width="2"
   height="2"
   id="rect4"
   style="fill:#808080;fill-opacity:1" />
	<rect
   x="4"
   y="25"
   width="2"
   height="2"
   id="rect6"
   style="fill:#808080;fill-opacity:1" />
	<rect
   x="4"
   y="22"
   width="2"
   height="2"
   id="rect8"
   style="fill:#808080;fill-opacity:1" />
	<rect
   x="4"
   y="19"
   width="2"
   height="2"
   id="rect10"
   style="fill:#808080;fill-opacity:1" />
	<rect
   x="4"
   y="16"
   width="2"
   height="2"
   id="rect12"
   style="fill:#808080;fill-opacity:1" />
	<rect
   x="10"
   y="14"
   width="13"
   height="2"
   id="rect14"
   style="fill:#808080;fill-opacity:1" />
	<rect
   x="10"
   y="17"
   width="10"
   height="2"
   id="rect16"
   style="fill:#808080;fill-opacity:1" />
	<rect
   x="10"
   y="20"
   width="11"
   height="2"
   id="rect18"
   style="fill:#808080;fill-opacity:1" />
	<rect
   x="10"
   y="23"
   width="4"
   height="2"
   id="rect20"
   style="fill:#808080;fill-opacity:1" />
	<g
   id="g28"
   style="fill:#808080;fill-opacity:1">
		<path
   d="m 39.841,33.938 c -1.224,0 -2.539,0.294 -3.805,0.85 -1.65,0.726 -3.012,1.802 -3.836,3.03 -0.73,1.092 -0.931,2.153 -0.564,2.988 0.463,1.052 1.81,1.68 3.604,1.68 1.224,0 2.539,-0.293 3.804,-0.85 3.201,-1.406 5.216,-4.162 4.4,-6.018 -0.462,-1.053 -1.809,-1.68 -3.603,-1.68 z"
   id="path22"
   style="fill:#808080;fill-opacity:1" />
		<path
   d="M 54.465,44 52,40.303 V 18 h 8 V 11.089 C 60,9.386 58.614,8 56.911,8 H 34 3.089 C 1.386,8 0,9.386 0,11.089 V 34 48.911 C 0,50.614 1.386,52 3.089,52 H 56.911 C 58.614,52 60,50.614 60,48.911 V 44 Z M 55,12 c 0.552,0 1,0.448 1,1 0,0.552 -0.448,1 -1,1 -0.552,0 -1,-0.448 -1,-1 0,-0.552 0.448,-1 1,-1 z M 5,48 c -0.552,0 -1,-0.448 -1,-1 0,-0.552 0.448,-1 1,-1 0.552,0 1,0.448 1,1 0,0.552 -0.448,1 -1,1 z M 9,32 H 2 V 11.089 C 2,10.488 2.488,10 3.089,10 h 28.89 C 31.453,22.22 21.347,32 9,32 Z m 30.849,11.467 c -1.517,0.667 -3.11,1.019 -4.608,1.019 -2.612,0 -4.645,-1.074 -5.436,-2.875 -0.651,-1.483 -0.391,-3.226 0.734,-4.905 1.032,-1.542 2.699,-2.873 4.692,-3.749 1.518,-0.666 3.111,-1.019 4.609,-1.019 2.611,0 4.644,1.075 5.435,2.876 1.295,2.946 -1.088,6.748 -5.426,8.653 z M 55,48 c -0.552,0 -1,-0.448 -1,-1 0,-0.552 0.448,-1 1,-1 0.552,0 1,0.448 1,1 0,0.552 -0.448,1 -1,1 z"
   id="path24"
   style="fill:#808080;fill-opacity:1" />
		<polygon
   points="55,36 60,36 60,32 55,32 55,30 60,30 60,29 55,29 55,27 60,27 60,26 55,26 55,24 60,24 60,23 55,23 55,21 60,21 60,20 54,20 54,39.697 55.535,42 60,42 60,41 56,41 56,39 60,39 60,38 55,38 "
   id="polygon26"
   style="fill:#808080;fill-opacity:1" />
	</g>
</g>
<g
   id="g32">
</g>
<g
   id="g34">
</g>
<g
   id="g36">
</g>
<g
   id="g38">
</g>
<g
   id="g40">
</g>
<g
   id="g42">
</g>
<g
   id="g44">
</g>
<g
   id="g46">
</g>
<g
   id="g48">
</g>
<g
   id="g50">
</g>
<g
   id="g52">
</g>
<g
   id="g54">
</g>
<g
   id="g56">
</g>
<g
   id="g58">
</g>
<g
   id="g60">
</g>
</svg>
