<?xml version="1.0" encoding="UTF-8" standalone="no"?>
<svg
   xmlns:dc="http://purl.org/dc/elements/1.1/"
   xmlns:cc="http://creativecommons.org/ns#"
   xmlns:rdf="http://www.w3.org/1999/02/22-rdf-syntax-ns#"
   xmlns:svg="http://www.w3.org/2000/svg"
   xmlns="http://www.w3.org/2000/svg"
   xmlns:sodipodi="http://sodipodi.sourceforge.net/DTD/sodipodi-0.dtd"
   xmlns:inkscape="http://www.inkscape.org/namespaces/inkscape"
   version="1.1"
   id="Capa_1"
   x="0px"
   y="0px"
   viewBox="0 0 222.386 222.386"
   style="enable-background:new 0 0 222.386 222.386;"
   xml:space="preserve"
   sodipodi:docname="debug_injection.svg"
   inkscape:version="1.0.2 (e86c870879, 2021-01-15)"><metadata
   id="metadata1978"><rdf:RDF><cc:Work
       rdf:about=""><dc:format>image/svg+xml</dc:format><dc:type
         rdf:resource="http://purl.org/dc/dcmitype/StillImage" /><dc:title></dc:title></cc:Work></rdf:RDF></metadata><defs
   id="defs1976" /><sodipodi:namedview
   pagecolor="#ffffff"
   bordercolor="#666666"
   borderopacity="1"
   objecttolerance="10"
   gridtolerance="10"
   guidetolerance="10"
   inkscape:pageopacity="0"
   inkscape:pageshadow="2"
   inkscape:window-width="3141"
   inkscape:window-height="1803"
   id="namedview1974"
   showgrid="false"
   inkscape:zoom="5.0183015"
   inkscape:cx="111.193"
   inkscape:cy="111.193"
   inkscape:window-x="0"
   inkscape:window-y="0"
   inkscape:window-maximized="0"
   inkscape:current-layer="Capa_1" />
<path
   d="M210.365,74.954l12.02-12.021L159.453,0l-12.02,12.021l9.545,9.545l-10.607,10.607l-14.849-14.85l-12.02,12.021l8.131,8.131  l-92.632,92.632l11.667,11.667l-15.556,15.556l8.485,8.485L0.001,205.415l16.971,16.971l39.597-39.598l8.486,8.486l15.556-15.557  l11.667,11.667l92.631-92.631l8.132,8.132l12.021-12.021l-14.849-14.849l10.607-10.607L210.365,74.954z M111.134,152.5  l-16.263-16.263l8.485-8.485l16.264,16.263L111.134,152.5z M129.519,134.115l-16.263-16.263l8.485-8.485l16.263,16.263  L129.519,134.115z M148.611,115.023L132.347,98.76l8.485-8.485l16.263,16.263L148.611,115.023z"
   id="path1941"
   style="fill:#808080;fill-opacity:1" />
<g
   id="g1943">
</g>
<g
   id="g1945">
</g>
<g
   id="g1947">
</g>
<g
   id="g1949">
</g>
<g
   id="g1951">
</g>
<g
   id="g1953">
</g>
<g
   id="g1955">
</g>
<g
   id="g1957">
</g>
<g
   id="g1959">
</g>
<g
   id="g1961">
</g>
<g
   id="g1963">
</g>
<g
   id="g1965">
</g>
<g
   id="g1967">
</g>
<g
   id="g1969">
</g>
<g
   id="g1971">
</g>
</svg>
