<?xml version="1.0" encoding="UTF-8" standalone="no"?>
<svg
   xmlns:dc="http://purl.org/dc/elements/1.1/"
   xmlns:cc="http://creativecommons.org/ns#"
   xmlns:rdf="http://www.w3.org/1999/02/22-rdf-syntax-ns#"
   xmlns:svg="http://www.w3.org/2000/svg"
   xmlns="http://www.w3.org/2000/svg"
   xmlns:sodipodi="http://sodipodi.sourceforge.net/DTD/sodipodi-0.dtd"
   xmlns:inkscape="http://www.inkscape.org/namespaces/inkscape"
   version="1.1"
   id="Layer_1"
   x="0px"
   y="0px"
   viewBox="0 0 504 504"
   style="enable-background:new 0 0 504 504;"
   xml:space="preserve"
   sodipodi:docname="debug_imageblacklist.svg"
   inkscape:version="1.0.2 (e86c870879, 2021-01-15)"><metadata
   id="metadata2556"><rdf:RDF><cc:Work
       rdf:about=""><dc:format>image/svg+xml</dc:format><dc:type
         rdf:resource="http://purl.org/dc/dcmitype/StillImage" /><dc:title></dc:title></cc:Work></rdf:RDF></metadata><defs
   id="defs2554" /><sodipodi:namedview
   pagecolor="#ffffff"
   bordercolor="#666666"
   borderopacity="1"
   objecttolerance="10"
   gridtolerance="10"
   guidetolerance="10"
   inkscape:pageopacity="0"
   inkscape:pageshadow="2"
   inkscape:window-width="3656"
   inkscape:window-height="1836"
   id="namedview2552"
   showgrid="false"
   inkscape:zoom="2.9027778"
   inkscape:cx="252"
   inkscape:cy="252"
   inkscape:window-x="0"
   inkscape:window-y="0"
   inkscape:window-maximized="0"
   inkscape:current-layer="Layer_1" />
<g
   id="g2507"
   style="fill:#808080;fill-opacity:1">
	<g
   id="g2505"
   style="fill:#808080;fill-opacity:1">
		<path
   d="m 311.3,108.376 c -15.304,0 -27.752,12.448 -27.752,27.752 0.004,15.296 12.452,27.748 27.752,27.748 15.3,0 27.752,-12.448 27.752,-27.748 0,-15.304 -12.448,-27.752 -27.752,-27.752 z"
   id="path2503"
   style="fill:#808080;fill-opacity:1" />
	</g>
</g>
<g
   id="g2513"
   style="fill:#808080;fill-opacity:1">
	<g
   id="g2511"
   style="fill:#808080;fill-opacity:1">
		<path
   d="m 252.164,285.732 c -49.992,0 -90.508,40.52 -90.508,90.508 0,49.98 40.516,90.504 90.508,90.504 49.992,0 90.512,-40.524 90.512,-90.504 0,-49.992 -40.52,-90.508 -90.512,-90.508 z m 50.984,101.964 H 201.016 c -6.476,0 -11.748,-5.336 -11.748,-11.812 0,-6.472 5.268,-11.812 11.748,-11.812 h 102.132 c 6.476,0 11.748,5.34 11.748,11.812 0,6.476 -5.272,11.812 -11.748,11.812 z"
   id="path2509"
   style="fill:#808080;fill-opacity:1" />
	</g>
</g>
<g
   id="g2519"
   style="fill:#808080;fill-opacity:1">
	<g
   id="g2517"
   style="fill:#808080;fill-opacity:1">
		<path
   d="M 484.356,37.256 H 19.976 C 9.12,37.256 0,46.196 0,57.048 v 299.504 c 0,10.86 9.12,19.332 19.976,19.332 h 118.056 c 0,-63 51.2,-114.132 114.132,-114.132 62.936,0 114.136,51.132 114.136,114.132 h 118.056 c 10.856,0 19.644,-8.472 19.644,-19.332 V 57.048 C 504,46.196 495.212,37.256 484.356,37.256 Z M 391.5,172.188 317.044,246.664 203.712,133.336 c -1.54,-1.54 -4.024,-1.54 -5.564,0 l -71.884,71.892 -32.816,-32.812 c -1.536,-1.54 -4.172,-1.54 -5.708,0 L 35.436,224.572 V 72.696 H 468.56 v 171.012 l -71.5,-71.52 c -1.54,-1.54 -4.02,-1.54 -5.56,0 z"
   id="path2515"
   style="fill:#808080;fill-opacity:1" />
	</g>
</g>
<g
   id="g2521">
</g>
<g
   id="g2523">
</g>
<g
   id="g2525">
</g>
<g
   id="g2527">
</g>
<g
   id="g2529">
</g>
<g
   id="g2531">
</g>
<g
   id="g2533">
</g>
<g
   id="g2535">
</g>
<g
   id="g2537">
</g>
<g
   id="g2539">
</g>
<g
   id="g2541">
</g>
<g
   id="g2543">
</g>
<g
   id="g2545">
</g>
<g
   id="g2547">
</g>
<g
   id="g2549">
</g>
</svg>
