<?xml version="1.0" encoding="UTF-8" standalone="no"?>
<svg
   xmlns:dc="http://purl.org/dc/elements/1.1/"
   xmlns:cc="http://creativecommons.org/ns#"
   xmlns:rdf="http://www.w3.org/1999/02/22-rdf-syntax-ns#"
   xmlns:svg="http://www.w3.org/2000/svg"
   xmlns="http://www.w3.org/2000/svg"
   xmlns:sodipodi="http://sodipodi.sourceforge.net/DTD/sodipodi-0.dtd"
   xmlns:inkscape="http://www.inkscape.org/namespaces/inkscape"
   id="图层_1"
   data-name="图层 1"
   viewBox="0 0 91.080078 91.080086"
   version="1.1"
   sodipodi:docname="ubuntukylin.svg"
   width="91.080078"
   height="91.080086"
   inkscape:version="1.0.2 (e86c870879, 2021-01-15)">
  <metadata
     id="metadata12411">
    <rdf:RDF>
      <cc:Work
         rdf:about="">
        <dc:format>image/svg+xml</dc:format>
        <dc:type
           rdf:resource="http://purl.org/dc/dcmitype/StillImage" />
        <dc:title></dc:title>
      </cc:Work>
    </rdf:RDF>
  </metadata>
  <sodipodi:namedview
     pagecolor="#ffffff"
     bordercolor="#666666"
     borderopacity="1"
     objecttolerance="10"
     gridtolerance="10"
     guidetolerance="10"
     inkscape:pageopacity="0"
     inkscape:pageshadow="2"
     inkscape:window-width="3317"
     inkscape:window-height="1770"
     id="namedview12409"
     showgrid="false"
     fit-margin-top="0"
     fit-margin-left="0"
     fit-margin-right="0"
     fit-margin-bottom="0"
     inkscape:zoom="6.9644269"
     inkscape:cx="-16.387819"
     inkscape:cy="62.4779"
     inkscape:window-x="0"
     inkscape:window-y="0"
     inkscape:window-maximized="0"
     inkscape:current-layer="图层_1"
     inkscape:document-rotation="0" />
  <defs
     id="defs12386">
    <style
       id="style12384">.cls-1{fill:#fff;}.cls-2{fill:#dd4814;}.cls-3,.cls-4{fill:#f9f9f9;}.cls-3{fill-rule:evenodd;}</style>
  </defs>
  <path
     id="circle12392"
     style="fill:#808080;fill-opacity:1"
     d="M 45.505858,3.0254722e-6 A 45.540001,45.540001 0 0 0 1.1333711e-8,45.539065 45.540001,45.540001 0 0 0 45.539058,91.080082 45.540001,45.540001 0 0 0 91.080078,45.539065 45.540001,45.540001 0 0 0 45.539058,3.0254721e-6 a 45.540001,45.540001 0 0 0 -0.0332,10e-14 z M 62.353518,10.761722 a 6.5999999,6.5999999 0 0 1 1.70898,0.205078 6.5999999,6.5999999 0 0 1 4.76563,8.025391 6.5999999,6.5999999 0 0 1 -8.02735,4.763671 6.5999999,6.5999999 0 0 1 -4.76367,-8.02539 6.5999999,6.5999999 0 0 1 6.31641,-4.96875 z m -16.78125,6.007812 a 28.88,28.88 0 0 1 0.25781,0 29.24,29.24 0 0 1 7.82031,1.070313 8.77,8.77 0 0 0 12.66992,7.390625 29,29 0 0 1 8.46875,18.40039 l -10.22851,0.138672 A 18.84,18.84 0 0 0 38.169918,28.599612 l -5.24023,-8.830078 a 28.88,28.88 0 0 1 12.64258,-3 z m -15.90235,4.910157 5.23047,8.791015 a 18.83,18.83 0 0 0 -0.26953,30.5 l -4.98047,8.910156 a 29,29 0 0 1 -11.999997,-17 8.78,8.78 0 0 0 0.08008,-14.460937 29.06,29.06 0 0 1 11.939457,-16.740234 z m 16.59961,8.480468 -1.53906,4.560547 0.85938,3.419922 -2.37891,3.240234 3.56836,2.619141 4.98047,2 3.54101,-1.869141 2.08008,-3.050781 3.41992,-1.050781 -0.64062,4.431641 -2.18946,0.769531 -1.61132,-0.310547 -2.88868,1.669922 0.16993,3.519531 1.43945,2.900391 -2.83008,2.589843 0.18945,2.179688 -3.91015,-0.0098 3.06055,-4.359375 -1.06055,-1.320312 -2.94922,2.310547 -0.0195,1.539062 -3.82031,-0.05859 2.48047,-2.271484 2.39843,-2.849609 -2.03906,-1.330078 -2.06055,1.060546 -2.79882,1.09961 -2.47071,-0.439423 -1.5,2.298828 -0.48047,3.339843 h -3.71875 l 2.66993,-3.148437 -0.79102,-1.871094 -0.60938,-3.689453 -1.92968,-4.75 3.5,-6.480469 3.25,-1.990234 3.41015,-3.449219 -0.96093,2.369141 0.51953,0.08008 z m -33.671872,8.863282 a 6.5999999,6.5999999 0 0 1 0.644532,0.02148 6.5999999,6.5999999 0 0 1 6.033203,7.123047 6.5999999,6.5999999 0 0 1 -7.121094,6.033203 6.5999999,6.5999999 0 0 1 -6.033203,-7.123047 6.5999999,6.5999999 0 0 1 6.476562,-6.054687 z m 62.232422,8.425781 a 28.89,28.89 0 0 1 -8.15039,18.630859 8.8,8.8 0 0 0 -12.94922,7.740234 29,29 0 0 1 -20.86133,-2 l 5,-8.919921 a 18.85,18.85 0 0 0 26.72071,-15.361329 z m -12.30469,19.730469 a 6.6,6.6 0 0 1 0.002,0 6.6,6.6 0 0 1 0.002,0 6.6,6.6 0 0 1 6.58985,6.599609 6.6,6.6 0 1 1 -6.59375,-6.599609 z" />
</svg>
